TUTORIAL SERIES: GETTING DATA INTO R: GETTING DATA FROM A TEXT FILE
…
Here is another way to add 1900 to the year column

wind$Year <- wind$Year + 1900

INSERT: let's turn our data.frame into tbl_df using tibble package. This form
is sometimes easier as it abbreviates huge data.frames when it prints them

## call tibble function as_tibble() this one time
wind <- tibble::as_tibble(wind)
## look at the format
wind

## # A tibble: 6,574 × 15
##     Year month   day   RPT   VAL   ROS   KIL   SHA   BIR   DUB   CLA   MUL   CLO   BEL   MAL
##    <dbl> <int> <int> <dbl> <dbl> <dbl> <dbl> <dbl> <dbl> <dbl> <dbl> <dbl> <dbl> <dbl> <dbl>
## 1   1961     1     1 15.04 14.96 13.17  9.29 13.96  9.87 13.67 10.25 10.83 12.58 18.50 15.04
## 2   1961     1     2 14.71 16.88 10.83  6.50 12.62  7.67 11.50 10.04  9.79  9.67 17.54 13.83
## 3   1961     1     3 18.50 16.88 12.33 10.13 11.17  6.17 11.25  8.04  8.50  7.67 12.75 12.71
## 4   1961     1     4 10.58  6.63 11.75  4.58  4.54  2.88  8.63  1.79  5.83  5.88  5.46 10.88
## 5   1961     1     5 13.33 13.25 11.42  6.17 10.71  8.21 11.92  6.54 10.92 10.34 12.92 11.83
## 6   1961     1     6 13.21  8.12  9.96  6.67  5.37  4.50 10.67  4.42  7.17  7.50  8.12 13.17
## 7   1961     1     7 13.50 14.29  9.50  4.96 12.29  8.33  9.17  9.29  7.58  7.96 13.96 13.79
## 8   1961     1     8 10.96  9.75  7.62  5.91  9.62  7.29 14.29  7.62  9.25 10.46 16.62 16.46
## 9   1961     1     9 12.58 10.83 10.00  4.75 10.37  6.79  8.04 10.13  7.79  9.08 13.04 15.37
## 10  1961     1    10 13.37 11.12 19.50  8.33  9.71  6.54 11.42  7.79  8.54  9.00  8.58 11.83
## # ... with 6,564 more rows
…
## display average wind speed across each year for all stations
wind_g <- wind %>% mutate(years = lubridate::year(wind$Date)) %>% group_by(years,Station) %>% summarize(Mean = mean(Wind_Speed))

## have a look
wind_g

## Source: local data frame [216 x 3]
## Groups: years [?]
##
##    years Station      Mean
##    <dbl>   <chr>     <dbl>
## 1   1961     BEL 13.502795
## 2   1961     BIR  7.729726
## 3   1961     CLA  8.845397
## 4   1961     CLO  9.831342
## 5   1961     DUB  9.725288
## 6   1961     KIL  6.955288
## 7   1961     MAL 13.696411
## 8   1961     MUL  8.686521
## 9   1961     ROS 11.356384
## 10  1961     RPT 12.319233
## # ... with 206 more rows

## it's a tibble so to see more rows
nrow(wind_g)

## [1] 216

print(tbl_df(wind_g), n=30)

## # A tibble: 216 × 3
##    years Station      Mean
##    <dbl>   <chr>     <dbl>
## 1   1961     BEL 13.502795
## 2   1961     BIR  7.729726
## 3   1961     CLA  8.845397
## 4   1961     CLO  9.831342
## 5   1961     DUB  9.725288
## 6   1961     KIL  6.955288
## 7   1961     MAL 13.696411
## 8   1961     MUL  8.686521
## 9   1961     ROS 11.356384
## 10  1961     RPT 12.319233
## 11  1961     SHA 10.898274
## 12  1961     VAL 10.392630
## 13  1962     BEL 12.930685
## 14  1962     BIR  7.393068
## 15  1962     CLA  8.793753
## 16  1962     CLO  9.676247
## 17  1962     DUB 11.020712
## 18  1962     KIL  6.950959
## 19  1962     MAL 14.334466
## 20  1962     MUL  8.316822
## 21  1962     ROS 11.732712
## 22  1962     RPT 12.241562
## 23  1962     SHA 10.657918
## 24  1962     VAL 10.110438
## 25  1963     BEL 13.638877
## 26  1963     BIR  8.434712
## 27  1963     CLA 10.336548
## 28  1963     CLO 10.224438
## 29  1963     DUB 11.075699
## 30  1963     KIL  7.330055
## # ... with 186 more rows
…
